{
    "deploy":"online",
    "admin":"http://localhost:4041/carukeadmin",
    "secrete":"613b5c61bec6f0a458905518",
    "dbprod":"mongodb://172.105.105.132:27017/carukee",
    "dbtest":"mongodb://localhost:27017/carukedb",
    "pwd":"@Websoft123",
    "env":"test",
    "dbuser_prod":"root",
    "test_port":"4040",
    "prod_port":"4041"
}